Noah, Moench, 123123121, 232 695 2394, yellow
Ria Tillotson, aqua marine, 97671, 196 910 5548
Annalee, Loftis, 97296, 905 329 2054, blue
James Johnston, gray, 38410, 628 102 3672
Liptak, Quinton, (653)-889-7235, yellow, 70703
0.547777482345
George Won, aqua marine, 97148, 488 084 5794
McGrath, Luke, (555)-11111-11111111, gray, 70646
Gladis, Tubb, 73149, 454 934 6454, pink
Aura, Eilers, 39358, 489 634 9504, pink
Clary, Blair, (463)-118-2451, red, 07256
Hood, Robert, (054)-813-6030, pink, 47784
Breland, Laurie, (087)-853-4995, aqua marine, 44359
Englebert G. Humperdink, red, 36410, 839 014 8051
Dhillon, Beata, (843)-661-4252, pink, 90022
Natashia Gustavson, yellow, 123123121, 920 018 5207
Pardini, Mack, (555)-11111-11111111, blue, 17058
Leedy, Magan, (896)-391-7308, blue, 48680
Shanika, Dodd, 82733, 940 761 0886, pink
Hung, Moxley, 93381, 667 132 9000, pink
Patnaude, Andy, (612)-712-8471, aqua marine, 29198
Maurita Awong, blue, 15726, 061 937 1243
Marita Haugland, red, 21231, 034 614 7966
Swearingen, Kristeen, (238)-440-6451, blue, 60460
Saltsman, Sabina, (577)-767-9995, blue, 81360
Davis, Armand, (240)-736-4719, yellow, 64320
Kerri, Chandler, 32868, 818 246 5061, red
Shela Mona, pink, 11198, 986 283 6066
Prince Gabler, gray, 08291, 645 200 7094
Julian, Fanning, 82820, 555 11111 11111111, red
Earlene Merryman, blue, 86258, 305 987 8362
Theodora Whipkey, red, 54450, 808 633 1734
Butterfield, Kelsi, (967)-196-4953, yellow, 05644
Mccaster, Fatimah, (854)-345-7518, gray, 57693
Mirian, Hankey, 22172, 180 739 1295, aqua marine
Reinaldo, Vandermeer, 76589, 751 665 5618, gray
Theo Parrish, green, 60128, 423 334 3136
0.429926275625
Nurse, Corliss, (555)-11111-11111111, red, 47185
Mazie, Chavis, 48843, 218 097 2208, gray
Demming, Kent, (622)-720-0550, red, 37820
0.449778662506
Len Pollack, aqua marine, 29868, 642 573 6473
Dawn, Osvaldo, (555)-11111-11111111, pink, 81087
0.513220696303
Jay, Nathaniel, (555)-11111-11111111, red, 16398
Ferro, Myrtice, (568)-821-3874, green, 95836
Cordova, Ken, (555)-11111-11111111, blue, 123123121
Manuel Canipe, blue, 16018, 555 11111 11111111
Mcclusky, Isabell, (676)-545-7599, pink, 123123121
Margarete Stickle, aqua marine, 92493, 805 612 0845
Cadena, Clarinda, (666)-621-7485, red, 09517
Bernie Mallette, pink, 17300, 859 924 2843
Ballentine, Hyo, (182)-424-5300, blue, 21351
Azzie, Zabriskie, 94339, 110 574 1904, green
Jacques Renault, yellow, 00328, 157 348 8325
0.261329218422
Marin Munden, aqua marine, 82431, 555 11111 11111111
Magaly, Gregor, 86286, 698 513 7428, blue
Schuetz, France, (732)-729-4104, pink, 09893
Darline, Barbeau, 11027, 260 619 7450, blue
Darcie, Phoenix, 55806, 854 910 7619, pink
Rachele, Maze, 123123121, 041 740 9337, aqua marine
Miller, Justin, (657)-743-7189, blue, 58979