-------------------------------------------------------------------------------
Test set: com.guidewire.coding.CodingApplicationTests
-------------------------------------------------------------------------------
Tests run: 1, Failures: 0, Errors: 0, Skipped: 0, Time elapsed: 3.46 s - in com.guidewire.coding.CodingApplicationTests
