-------------------------------------------------------------------------------
Test set: com.guidewire.coding.service.CSVToObjectParserTest
-------------------------------------------------------------------------------
Tests run: 17, Failures: 0, Errors: 0, Skipped: 0, Time elapsed: 0.103 s - in com.guidewire.coding.service.CSVToObjectParserTest
